/*
WARNING: Do NOT edit the input and output ports in this file in a text
editor if you plan to continue editing the block that represents it in
the Block Editor! File corruption is VERY likely to occur.
*/
/*
Copyright (C) 1991-2013 Altera Corporation
Your use of Altera Corporation's design tools, logic functions 
and other software and tools, and its AMPP partner logic 
functions, and any output files from any of the foregoing 
(including device programming or simulation files), and any 
associated documentation or information are expressly subject 
to the terms and conditions of the Altera Program License 
Subscription Agreement, Altera MegaCore Function License 
Agreement, or other applicable license agreement, including, 
without limitation, that your use is for the sole purpose of 
programming logic devices manufactured by Altera and sold by 
Altera or its authorized distributors.  Please refer to the 
applicable agreement for further details.
*/
(header "graphic" (version "1.4"))
(pin
	(input)
	(rect 192 -200 360 -184)
	(text "INPUT" (rect 125 0 153 10)(font "Arial" (font_size 6)))
	(text "clk" (rect 5 0 19 12)(font "Arial" ))
	(pt 168 8)
	(drawing
		(line (pt 84 12)(pt 109 12))
		(line (pt 84 4)(pt 109 4))
		(line (pt 113 8)(pt 168 8))
		(line (pt 84 12)(pt 84 4))
		(line (pt 109 4)(pt 113 8))
		(line (pt 109 12)(pt 113 8))
	)
	(text "VCC" (rect 128 7 148 17)(font "Arial" (font_size 6)))
)
(pin
	(output)
	(rect 2304 -280 2484 -264)
	(text "OUTPUT" (rect 1 0 39 10)(font "Arial" (font_size 6)))
	(text "memoryOut[7..0]" (rect 90 0 174 12)(font "Arial" ))
	(pt 0 8)
	(drawing
		(line (pt 0 8)(pt 52 8))
		(line (pt 52 4)(pt 78 4))
		(line (pt 52 12)(pt 78 12))
		(line (pt 52 12)(pt 52 4))
		(line (pt 78 4)(pt 82 8))
		(line (pt 82 8)(pt 78 12))
		(line (pt 78 12)(pt 82 8))
	)
)
(pin
	(output)
	(rect 1312 152 1488 168)
	(text "OUTPUT" (rect 1 0 39 10)(font "Arial" (font_size 6)))
	(text "ARLoad" (rect 90 0 128 12)(font "Arial" ))
	(pt 0 8)
	(drawing
		(line (pt 0 8)(pt 52 8))
		(line (pt 52 4)(pt 78 4))
		(line (pt 52 12)(pt 78 12))
		(line (pt 52 12)(pt 52 4))
		(line (pt 78 4)(pt 82 8))
		(line (pt 82 8)(pt 78 12))
		(line (pt 78 12)(pt 82 8))
	)
)
(pin
	(output)
	(rect 1640 -56 1816 -40)
	(text "OUTPUT" (rect 1 0 39 10)(font "Arial" (font_size 6)))
	(text "AR[4..0]" (rect 90 0 131 12)(font "Arial" ))
	(pt 0 8)
	(drawing
		(line (pt 0 8)(pt 52 8))
		(line (pt 52 4)(pt 78 4))
		(line (pt 52 12)(pt 78 12))
		(line (pt 52 12)(pt 52 4))
		(line (pt 78 4)(pt 82 8))
		(line (pt 82 8)(pt 78 12))
		(line (pt 78 12)(pt 82 8))
	)
)
(pin
	(output)
	(rect 1920 256 2096 272)
	(text "OUTPUT" (rect 1 0 39 10)(font "Arial" (font_size 6)))
	(text "PC[4..0]" (rect 90 0 131 12)(font "Arial" ))
	(pt 0 8)
	(drawing
		(line (pt 0 8)(pt 52 8))
		(line (pt 52 4)(pt 78 4))
		(line (pt 52 12)(pt 78 12))
		(line (pt 52 12)(pt 52 4))
		(line (pt 78 4)(pt 82 8))
		(line (pt 82 8)(pt 78 12))
		(line (pt 78 12)(pt 82 8))
	)
)
(pin
	(output)
	(rect 1896 712 2072 728)
	(text "OUTPUT" (rect 1 0 39 10)(font "Arial" (font_size 6)))
	(text "SP[4..0]" (rect 90 0 130 12)(font "Arial" ))
	(pt 0 8)
	(drawing
		(line (pt 0 8)(pt 52 8))
		(line (pt 52 4)(pt 78 4))
		(line (pt 52 12)(pt 78 12))
		(line (pt 52 12)(pt 52 4))
		(line (pt 78 4)(pt 82 8))
		(line (pt 82 8)(pt 78 12))
		(line (pt 78 12)(pt 82 8))
	)
)
(pin
	(output)
	(rect 1824 920 2000 936)
	(text "OUTPUT" (rect 1 0 39 10)(font "Arial" (font_size 6)))
	(text "AC[7..0]" (rect 90 0 131 12)(font "Arial" ))
	(pt 0 8)
	(drawing
		(line (pt 0 8)(pt 52 8))
		(line (pt 52 4)(pt 78 4))
		(line (pt 52 12)(pt 78 12))
		(line (pt 52 12)(pt 52 4))
		(line (pt 78 4)(pt 82 8))
		(line (pt 82 8)(pt 78 12))
		(line (pt 78 12)(pt 82 8))
	)
)
(pin
	(output)
	(rect 1784 1096 1960 1112)
	(text "OUTPUT" (rect 1 0 39 10)(font "Arial" (font_size 6)))
	(text "IR[2..0]" (rect 90 0 127 12)(font "Arial" ))
	(pt 0 8)
	(drawing
		(line (pt 0 8)(pt 52 8))
		(line (pt 52 4)(pt 78 4))
		(line (pt 52 12)(pt 78 12))
		(line (pt 52 12)(pt 52 4))
		(line (pt 78 4)(pt 82 8))
		(line (pt 82 8)(pt 78 12))
		(line (pt 78 12)(pt 82 8))
	)
)
(pin
	(output)
	(rect 1720 408 1896 424)
	(text "OUTPUT" (rect 1 0 39 10)(font "Arial" (font_size 6)))
	(text "DR[7..0]" (rect 90 0 132 12)(font "Arial" ))
	(pt 0 8)
	(drawing
		(line (pt 0 8)(pt 52 8))
		(line (pt 52 4)(pt 78 4))
		(line (pt 52 12)(pt 78 12))
		(line (pt 52 12)(pt 52 4))
		(line (pt 78 4)(pt 82 8))
		(line (pt 82 8)(pt 78 12))
		(line (pt 78 12)(pt 82 8))
	)
)
(pin
	(output)
	(rect 1328 568 1504 584)
	(text "OUTPUT" (rect 1 0 39 10)(font "Arial" (font_size 6)))
	(text "DRLoad" (rect 90 0 130 12)(font "Arial" ))
	(pt 0 8)
	(drawing
		(line (pt 0 8)(pt 52 8))
		(line (pt 52 4)(pt 78 4))
		(line (pt 52 12)(pt 78 12))
		(line (pt 52 12)(pt 52 4))
		(line (pt 78 4)(pt 82 8))
		(line (pt 82 8)(pt 78 12))
		(line (pt 78 12)(pt 82 8))
	)
)
(pin
	(output)
	(rect 1336 360 1512 376)
	(text "OUTPUT" (rect 1 0 39 10)(font "Arial" (font_size 6)))
	(text "PCLoad" (rect 90 0 128 12)(font "Arial" ))
	(pt 0 8)
	(drawing
		(line (pt 0 8)(pt 52 8))
		(line (pt 52 4)(pt 78 4))
		(line (pt 52 12)(pt 78 12))
		(line (pt 52 12)(pt 52 4))
		(line (pt 78 4)(pt 82 8))
		(line (pt 82 8)(pt 78 12))
		(line (pt 78 12)(pt 82 8))
	)
)
(pin
	(output)
	(rect 1352 1176 1528 1192)
	(text "OUTPUT" (rect 1 0 39 10)(font "Arial" (font_size 6)))
	(text "IRLoad" (rect 90 0 125 12)(font "Arial" ))
	(pt 0 8)
	(drawing
		(line (pt 0 8)(pt 52 8))
		(line (pt 52 4)(pt 78 4))
		(line (pt 52 12)(pt 78 12))
		(line (pt 52 12)(pt 52 4))
		(line (pt 78 4)(pt 82 8))
		(line (pt 82 8)(pt 78 12))
		(line (pt 78 12)(pt 82 8))
	)
)
(pin
	(output)
	(rect 1312 792 1488 808)
	(text "OUTPUT" (rect 1 0 39 10)(font "Arial" (font_size 6)))
	(text "SPinc" (rect 90 0 118 12)(font "Arial" ))
	(pt 0 8)
	(drawing
		(line (pt 0 8)(pt 52 8))
		(line (pt 52 4)(pt 78 4))
		(line (pt 52 12)(pt 78 12))
		(line (pt 52 12)(pt 52 4))
		(line (pt 78 4)(pt 82 8))
		(line (pt 82 8)(pt 78 12))
		(line (pt 78 12)(pt 82 8))
	)
)
(pin
	(output)
	(rect 1256 808 1432 824)
	(text "OUTPUT" (rect 1 0 39 10)(font "Arial" (font_size 6)))
	(text "SPdec" (rect 90 0 121 12)(font "Arial" ))
	(pt 0 8)
	(drawing
		(line (pt 0 8)(pt 52 8))
		(line (pt 52 4)(pt 78 4))
		(line (pt 52 12)(pt 78 12))
		(line (pt 52 12)(pt 52 4))
		(line (pt 78 4)(pt 82 8))
		(line (pt 82 8)(pt 78 12))
		(line (pt 78 12)(pt 82 8))
	)
)
(pin
	(output)
	(rect 2312 1200 2488 1216)
	(text "OUTPUT" (rect 1 0 39 10)(font "Arial" (font_size 6)))
	(text "DataReg[7..0]" (rect 90 0 159 12)(font "Arial" ))
	(pt 0 8)
	(drawing
		(line (pt 0 8)(pt 52 8))
		(line (pt 52 4)(pt 78 4))
		(line (pt 52 12)(pt 78 12))
		(line (pt 52 12)(pt 52 4))
		(line (pt 78 4)(pt 82 8))
		(line (pt 82 8)(pt 78 12))
		(line (pt 78 12)(pt 82 8))
	)
)
(pin
	(output)
	(rect 960 928 1136 944)
	(text "OUTPUT" (rect 1 0 39 10)(font "Arial" (font_size 6)))
	(text "ADD" (rect 90 0 113 12)(font "Arial" ))
	(pt 0 8)
	(drawing
		(line (pt 0 8)(pt 52 8))
		(line (pt 52 4)(pt 78 4))
		(line (pt 52 12)(pt 78 12))
		(line (pt 52 12)(pt 52 4))
		(line (pt 78 4)(pt 82 8))
		(line (pt 82 8)(pt 78 12))
		(line (pt 78 12)(pt 82 8))
	)
)
(pin
	(output)
	(rect 952 992 1128 1008)
	(text "OUTPUT" (rect 1 0 39 10)(font "Arial" (font_size 6)))
	(text "Subt" (rect 90 0 112 12)(font "Arial" ))
	(pt 0 8)
	(drawing
		(line (pt 0 8)(pt 52 8))
		(line (pt 52 4)(pt 78 4))
		(line (pt 52 12)(pt 78 12))
		(line (pt 52 12)(pt 52 4))
		(line (pt 78 4)(pt 82 8))
		(line (pt 82 8)(pt 78 12))
		(line (pt 78 12)(pt 82 8))
	)
)
(pin
	(output)
	(rect 1264 400 1440 416)
	(text "OUTPUT" (rect 1 0 39 10)(font "Arial" (font_size 6)))
	(text "PCInc" (rect 90 0 120 12)(font "Arial" ))
	(pt 0 8)
	(drawing
		(line (pt 0 8)(pt 52 8))
		(line (pt 52 4)(pt 78 4))
		(line (pt 52 12)(pt 78 12))
		(line (pt 52 12)(pt 52 4))
		(line (pt 78 4)(pt 82 8))
		(line (pt 82 8)(pt 78 12))
		(line (pt 78 12)(pt 82 8))
	)
)
(pin
	(output)
	(rect 2024 152 2200 168)
	(text "OUTPUT" (rect 1 0 39 10)(font "Arial" (font_size 6)))
	(text "addressSP" (rect 90 0 143 12)(font "Arial" ))
	(pt 0 8)
	(drawing
		(line (pt 0 8)(pt 52 8))
		(line (pt 52 4)(pt 78 4))
		(line (pt 52 12)(pt 78 12))
		(line (pt 52 12)(pt 52 4))
		(line (pt 78 4)(pt 82 8))
		(line (pt 82 8)(pt 78 12))
		(line (pt 78 12)(pt 82 8))
	)
)
(pin
	(output)
	(rect 2024 104 2200 120)
	(text "OUTPUT" (rect 1 0 39 10)(font "Arial" (font_size 6)))
	(text "addressAR" (rect 90 0 144 12)(font "Arial" ))
	(pt 0 8)
	(drawing
		(line (pt 0 8)(pt 52 8))
		(line (pt 52 4)(pt 78 4))
		(line (pt 52 12)(pt 78 12))
		(line (pt 52 12)(pt 52 4))
		(line (pt 78 4)(pt 82 8))
		(line (pt 82 8)(pt 78 12))
		(line (pt 78 12)(pt 82 8))
	)
)
(pin
	(output)
	(rect 2344 688 2520 704)
	(text "OUTPUT" (rect 1 0 39 10)(font "Arial" (font_size 6)))
	(text "databusMEM" (rect 90 0 152 12)(font "Arial" ))
	(pt 0 8)
	(drawing
		(line (pt 0 8)(pt 52 8))
		(line (pt 52 4)(pt 78 4))
		(line (pt 52 12)(pt 78 12))
		(line (pt 52 12)(pt 52 4))
		(line (pt 78 4)(pt 82 8))
		(line (pt 82 8)(pt 78 12))
		(line (pt 78 12)(pt 82 8))
	)
)
(pin
	(output)
	(rect 2344 736 2520 752)
	(text "OUTPUT" (rect 1 0 39 10)(font "Arial" (font_size 6)))
	(text "databusPC" (rect 90 0 144 12)(font "Arial" ))
	(pt 0 8)
	(drawing
		(line (pt 0 8)(pt 52 8))
		(line (pt 52 4)(pt 78 4))
		(line (pt 52 12)(pt 78 12))
		(line (pt 52 12)(pt 52 4))
		(line (pt 78 4)(pt 82 8))
		(line (pt 82 8)(pt 78 12))
		(line (pt 78 12)(pt 82 8))
	)
)
(pin
	(output)
	(rect 2344 768 2520 784)
	(text "OUTPUT" (rect 1 0 39 10)(font "Arial" (font_size 6)))
	(text "databusDR" (rect 90 0 145 12)(font "Arial" ))
	(pt 0 8)
	(drawing
		(line (pt 0 8)(pt 52 8))
		(line (pt 52 4)(pt 78 4))
		(line (pt 52 12)(pt 78 12))
		(line (pt 52 12)(pt 52 4))
		(line (pt 78 4)(pt 82 8))
		(line (pt 82 8)(pt 78 12))
		(line (pt 78 12)(pt 82 8))
	)
)
(pin
	(output)
	(rect 1040 -24 1216 -8)
	(text "OUTPUT" (rect 1 0 39 10)(font "Arial" (font_size 6)))
	(text "WRITE" (rect 90 0 125 12)(font "Arial" ))
	(pt 0 8)
	(drawing
		(line (pt 0 8)(pt 52 8))
		(line (pt 52 4)(pt 78 4))
		(line (pt 52 12)(pt 78 12))
		(line (pt 52 12)(pt 52 4))
		(line (pt 78 4)(pt 82 8))
		(line (pt 82 8)(pt 78 12))
		(line (pt 78 12)(pt 82 8))
	)
)
(pin
	(output)
	(rect 2344 816 2520 832)
	(text "OUTPUT" (rect 1 0 39 10)(font "Arial" (font_size 6)))
	(text "databusAC" (rect 90 0 144 12)(font "Arial" ))
	(pt 0 8)
	(drawing
		(line (pt 0 8)(pt 52 8))
		(line (pt 52 4)(pt 78 4))
		(line (pt 52 12)(pt 78 12))
		(line (pt 52 12)(pt 52 4))
		(line (pt 78 4)(pt 82 8))
		(line (pt 82 8)(pt 78 12))
		(line (pt 78 12)(pt 82 8))
	)
)
(pin
	(output)
	(rect 2016 200 2192 216)
	(text "OUTPUT" (rect 1 0 39 10)(font "Arial" (font_size 6)))
	(text "addressDR" (rect 90 0 145 12)(font "Arial" ))
	(pt 0 8)
	(drawing
		(line (pt 0 8)(pt 52 8))
		(line (pt 52 4)(pt 78 4))
		(line (pt 52 12)(pt 78 12))
		(line (pt 52 12)(pt 52 4))
		(line (pt 78 4)(pt 82 8))
		(line (pt 82 8)(pt 78 12))
		(line (pt 78 12)(pt 82 8))
	)
)
(pin
	(output)
	(rect 608 1056 784 1072)
	(text "OUTPUT" (rect 137 0 175 10)(font "Arial" (font_size 6)))
	(text "ACMemLoad" (rect 5 0 67 12)(font "Arial" ))
	(pt 176 8)
	(drawing
		(line (pt 176 8)(pt 124 8))
		(line (pt 124 4)(pt 98 4))
		(line (pt 124 12)(pt 98 12))
		(line (pt 124 12)(pt 124 4))
		(line (pt 98 4)(pt 94 8))
		(line (pt 94 8)(pt 98 12))
		(line (pt 98 12)(pt 94 8))
	)
	(flipy)
)
(pin
	(output)
	(rect 440 360 616 376)
	(text "OUTPUT" (rect 1 0 39 10)(font "Arial" (font_size 6)))
	(text "sysclk" (rect 90 0 123 12)(font "Arial" ))
	(pt 0 8)
	(drawing
		(line (pt 0 8)(pt 52 8))
		(line (pt 52 4)(pt 78 4))
		(line (pt 52 12)(pt 78 12))
		(line (pt 52 12)(pt 52 4))
		(line (pt 78 4)(pt 82 8))
		(line (pt 82 8)(pt 78 12))
		(line (pt 78 12)(pt 82 8))
	)
)
(pin
	(output)
	(rect 1544 872 1720 888)
	(text "OUTPUT" (rect 1 0 39 10)(font "Arial" (font_size 6)))
	(text "ALU[7..0]" (rect 90 0 137 12)(font "Arial" ))
	(pt 0 8)
	(drawing
		(line (pt 0 8)(pt 52 8))
		(line (pt 52 4)(pt 78 4))
		(line (pt 52 12)(pt 78 12))
		(line (pt 52 12)(pt 52 4))
		(line (pt 78 4)(pt 82 8))
		(line (pt 82 8)(pt 78 12))
		(line (pt 78 12)(pt 82 8))
	)
)
(symbol
	(rect 1560 56 1752 168)
	(text "AR" (rect 5 0 20 12)(font "Arial" ))
	(text "inst3" (rect 8 96 31 108)(font "Arial" ))
	(port
		(pt 0 32)
		(input)
		(text "clk" (rect 0 0 14 12)(font "Arial" ))
		(text "clk" (rect 21 27 35 39)(font "Arial" ))
		(line (pt 0 32)(pt 16 32))
	)
	(port
		(pt 0 48)
		(input)
		(text "ARin[7..0]" (rect 0 0 49 12)(font "Arial" ))
		(text "ARin[7..0]" (rect 21 43 70 55)(font "Arial" ))
		(line (pt 0 48)(pt 16 48)(line_width 3))
	)
	(port
		(pt 0 64)
		(input)
		(text "ARload" (rect 0 0 35 12)(font "Arial" ))
		(text "ARload" (rect 21 59 56 71)(font "Arial" ))
		(line (pt 0 64)(pt 16 64))
	)
	(port
		(pt 192 32)
		(output)
		(text "ARout[4..0]" (rect 0 0 56 12)(font "Arial" ))
		(text "ARout[4..0]" (rect 124 27 180 39)(font "Arial" ))
		(line (pt 192 32)(pt 176 32)(line_width 3))
	)
	(drawing
		(rectangle (rect 16 16 176 96))
	)
)
(symbol
	(rect 1560 1096 1744 1208)
	(text "IR" (rect 5 0 16 12)(font "Arial" ))
	(text "inst5" (rect 8 96 31 108)(font "Arial" ))
	(port
		(pt 0 32)
		(input)
		(text "clk" (rect 0 0 14 12)(font "Arial" ))
		(text "clk" (rect 21 27 35 39)(font "Arial" ))
		(line (pt 0 32)(pt 16 32))
	)
	(port
		(pt 0 48)
		(input)
		(text "IRin[7..0]" (rect 0 0 46 12)(font "Arial" ))
		(text "IRin[7..0]" (rect 21 43 67 55)(font "Arial" ))
		(line (pt 0 48)(pt 16 48)(line_width 3))
	)
	(port
		(pt 0 64)
		(input)
		(text "IRload" (rect 0 0 31 12)(font "Arial" ))
		(text "IRload" (rect 21 59 52 71)(font "Arial" ))
		(line (pt 0 64)(pt 16 64))
	)
	(port
		(pt 184 32)
		(output)
		(text "IRout[2..0]" (rect 0 0 53 12)(font "Arial" ))
		(text "IRout[2..0]" (rect 119 27 172 39)(font "Arial" ))
		(line (pt 184 32)(pt 168 32)(line_width 3))
	)
	(drawing
		(rectangle (rect 16 16 168 96))
	)
)
(symbol
	(rect 1568 256 1752 368)
	(text "PC" (rect 5 0 20 12)(font "Arial" ))
	(text "inst6" (rect 8 96 31 108)(font "Arial" ))
	(port
		(pt 0 32)
		(input)
		(text "clk" (rect 0 0 14 12)(font "Arial" ))
		(text "clk" (rect 21 27 35 39)(font "Arial" ))
		(line (pt 0 32)(pt 16 32))
	)
	(port
		(pt 0 48)
		(input)
		(text "PCin[7..0]" (rect 0 0 49 12)(font "Arial" ))
		(text "PCin[7..0]" (rect 21 43 70 55)(font "Arial" ))
		(line (pt 0 48)(pt 16 48)(line_width 3))
	)
	(port
		(pt 0 64)
		(input)
		(text "PCload" (rect 0 0 35 12)(font "Arial" ))
		(text "PCload" (rect 21 59 56 71)(font "Arial" ))
		(line (pt 0 64)(pt 16 64))
	)
	(port
		(pt 0 80)
		(input)
		(text "PCinc" (rect 0 0 29 12)(font "Arial" ))
		(text "PCinc" (rect 21 75 50 87)(font "Arial" ))
		(line (pt 0 80)(pt 16 80))
	)
	(port
		(pt 184 32)
		(output)
		(text "PCout[4..0]" (rect 0 0 56 12)(font "Arial" ))
		(text "PCout[4..0]" (rect 116 27 172 39)(font "Arial" ))
		(line (pt 184 32)(pt 168 32)(line_width 3))
	)
	(drawing
		(rectangle (rect 16 16 168 96))
	)
)
(symbol
	(rect 1560 696 1744 840)
	(text "SP" (rect 5 0 19 12)(font "Arial" ))
	(text "inst7" (rect 8 128 31 140)(font "Arial" ))
	(port
		(pt 0 32)
		(input)
		(text "clk" (rect 0 0 14 12)(font "Arial" ))
		(text "clk" (rect 21 27 35 39)(font "Arial" ))
		(line (pt 0 32)(pt 16 32))
	)
	(port
		(pt 0 48)
		(input)
		(text "SPin[7..0]" (rect 0 0 48 12)(font "Arial" ))
		(text "SPin[7..0]" (rect 21 43 69 55)(font "Arial" ))
		(line (pt 0 48)(pt 16 48)(line_width 3))
	)
	(port
		(pt 0 64)
		(input)
		(text "SPload" (rect 0 0 34 12)(font "Arial" ))
		(text "SPload" (rect 21 59 55 71)(font "Arial" ))
		(line (pt 0 64)(pt 16 64))
	)
	(port
		(pt 0 80)
		(input)
		(text "SPinc" (rect 0 0 28 12)(font "Arial" ))
		(text "SPinc" (rect 21 75 49 87)(font "Arial" ))
		(line (pt 0 80)(pt 16 80))
	)
	(port
		(pt 0 96)
		(input)
		(text "SPdec" (rect 0 0 31 12)(font "Arial" ))
		(text "SPdec" (rect 21 91 52 103)(font "Arial" ))
		(line (pt 0 96)(pt 16 96))
	)
	(port
		(pt 184 32)
		(output)
		(text "SPout[4..0]" (rect 0 0 55 12)(font "Arial" ))
		(text "SPout[4..0]" (rect 117 27 172 39)(font "Arial" ))
		(line (pt 184 32)(pt 168 32)(line_width 3))
	)
	(drawing
		(rectangle (rect 16 16 168 128))
	)
)
(symbol
	(rect 1968 -304 2184 -176)
	(text "RAMblock" (rect 70 0 140 16)(font "Arial" (font_size 10)))
	(text "inst13" (rect 8 112 37 124)(font "Arial" ))
	(port
		(pt 0 32)
		(input)
		(text "data[7..0]" (rect 0 0 53 14)(font "Arial" (font_size 8)))
		(text "data[7..0]" (rect 4 16 57 30)(font "Arial" (font_size 8)))
		(line (pt 0 32)(pt 88 32)(line_width 3))
	)
	(port
		(pt 0 48)
		(input)
		(text "wren" (rect 0 0 30 14)(font "Arial" (font_size 8)))
		(text "wren" (rect 4 32 34 46)(font "Arial" (font_size 8)))
		(line (pt 0 48)(pt 88 48))
	)
	(port
		(pt 0 64)
		(input)
		(text "address[4..0]" (rect 0 0 75 14)(font "Arial" (font_size 8)))
		(text "address[4..0]" (rect 4 48 79 62)(font "Arial" (font_size 8)))
		(line (pt 0 64)(pt 88 64)(line_width 3))
	)
	(port
		(pt 0 112)
		(input)
		(text "clock" (rect 0 0 29 14)(font "Arial" (font_size 8)))
		(text "clock" (rect 4 96 33 110)(font "Arial" (font_size 8)))
		(line (pt 0 112)(pt 80 112))
	)
	(port
		(pt 216 32)
		(output)
		(text "q[7..0]" (rect 0 0 35 14)(font "Arial" (font_size 8)))
		(text "q[7..0]" (rect 176 16 211 30)(font "Arial" (font_size 8)))
		(line (pt 216 32)(pt 136 32)(line_width 3))
	)
	(drawing
		(text "8 bits" (rect 106 30 118 57)(font "Arial" )(vertical))
		(text "32 words" (rect 120 15 132 58)(font "Arial" )(vertical))
		(text "Block type: AUTO" (rect 48 111 137 123)(font "Arial" ))
		(line (pt 104 24)(pt 136 24))
		(line (pt 136 24)(pt 136 96))
		(line (pt 136 96)(pt 104 96))
		(line (pt 104 96)(pt 104 24))
		(line (pt 118 58)(pt 123 63))
		(line (pt 118 62)(pt 123 57))
		(line (pt 88 27)(pt 96 27))
		(line (pt 96 27)(pt 96 39))
		(line (pt 96 39)(pt 88 39))
		(line (pt 88 39)(pt 88 27))
		(line (pt 88 34)(pt 90 36))
		(line (pt 90 36)(pt 88 38))
		(line (pt 80 36)(pt 88 36))
		(line (pt 96 32)(pt 104 32)(line_width 3))
		(line (pt 88 43)(pt 96 43))
		(line (pt 96 43)(pt 96 55))
		(line (pt 96 55)(pt 88 55))
		(line (pt 88 55)(pt 88 43))
		(line (pt 88 50)(pt 90 52))
		(line (pt 90 52)(pt 88 54))
		(line (pt 80 52)(pt 88 52))
		(line (pt 96 48)(pt 104 48))
		(line (pt 88 59)(pt 96 59))
		(line (pt 96 59)(pt 96 71))
		(line (pt 96 71)(pt 88 71))
		(line (pt 88 71)(pt 88 59))
		(line (pt 88 66)(pt 90 68))
		(line (pt 90 68)(pt 88 70))
		(line (pt 80 68)(pt 88 68))
		(line (pt 96 64)(pt 104 64)(line_width 3))
		(line (pt 80 112)(pt 80 36))
		(line (pt 0 0)(pt 217 0))
		(line (pt 217 0)(pt 217 130))
		(line (pt 0 130)(pt 217 130))
		(line (pt 0 0)(pt 0 130))
		(line (pt 0 0)(pt 0 0))
		(line (pt 0 0)(pt 0 0))
		(line (pt 0 0)(pt 0 0))
		(line (pt 0 0)(pt 0 0))
	)
)
(symbol
	(rect 1464 944 1528 992)
	(text "OR2" (rect 1 0 19 10)(font "Arial" (font_size 6)))
	(text "inst9" (rect 3 37 26 49)(font "Arial" ))
	(port
		(pt 0 32)
		(input)
		(text "IN2" (rect 2 23 19 35)(font "Courier New" (bold))(invisible))
		(text "IN2" (rect 2 23 19 35)(font "Courier New" (bold))(invisible))
		(line (pt 0 32)(pt 15 32))
	)
	(port
		(pt 0 16)
		(input)
		(text "IN1" (rect 2 7 19 19)(font "Courier New" (bold))(invisible))
		(text "IN1" (rect 2 7 19 19)(font "Courier New" (bold))(invisible))
		(line (pt 0 16)(pt 15 16))
	)
	(port
		(pt 64 24)
		(output)
		(text "OUT" (rect 48 15 65 27)(font "Courier New" (bold))(invisible))
		(text "OUT" (rect 48 15 65 27)(font "Courier New" (bold))(invisible))
		(line (pt 48 24)(pt 64 24))
	)
	(drawing
		(line (pt 14 36)(pt 25 36))
		(line (pt 14 13)(pt 25 13))
		(arc (pt 7 29)(pt 7 19)(rect -14 8 19 41))
		(arc (pt 49 24)(pt 25 13)(rect -6 13 57 76))
		(arc (pt 25 35)(pt 49 24)(rect -6 -27 57 36))
	)
)
(symbol
	(rect 2136 832 2312 1024)
	(text "dataMux" (rect 164 5 176 46)(font "Arial" )(vertical))
	(text "inst70" (rect 4 8 16 37)(font "Arial" )(vertical))
	(port
		(pt 144 0)
		(input)
		(text "memoryIn[7..0]" (rect 0 0 76 12)(font "Arial" ))
		(text "memoryIn[7..0]" (rect 137 21 149 97)(font "Arial" )(vertical))
		(line (pt 144 0)(pt 144 16)(line_width 3))
	)
	(port
		(pt 128 0)
		(input)
		(text "DRIn[7..0]" (rect 0 0 51 12)(font "Arial" ))
		(text "DRIn[7..0]" (rect 121 21 133 72)(font "Arial" )(vertical))
		(line (pt 128 0)(pt 128 16)(line_width 3))
	)
	(port
		(pt 112 0)
		(input)
		(text "ACIn[7..0]" (rect 0 0 50 12)(font "Arial" ))
		(text "ACIn[7..0]" (rect 105 21 117 71)(font "Arial" )(vertical))
		(line (pt 112 0)(pt 112 16)(line_width 3))
	)
	(port
		(pt 96 0)
		(input)
		(text "PCIn[4..0]" (rect 0 0 50 12)(font "Arial" ))
		(text "PCIn[4..0]" (rect 89 21 101 71)(font "Arial" )(vertical))
		(line (pt 96 0)(pt 96 16)(line_width 3))
	)
	(port
		(pt 80 0)
		(input)
		(text "memorySignal" (rect 0 0 70 12)(font "Arial" ))
		(text "memorySignal" (rect 73 21 85 91)(font "Arial" )(vertical))
		(line (pt 80 0)(pt 80 16))
	)
	(port
		(pt 64 0)
		(input)
		(text "PCSignal" (rect 0 0 44 12)(font "Arial" ))
		(text "PCSignal" (rect 57 21 69 65)(font "Arial" )(vertical))
		(line (pt 64 0)(pt 64 16))
	)
	(port
		(pt 48 0)
		(input)
		(text "DRSignal" (rect 0 0 46 12)(font "Arial" ))
		(text "DRSignal" (rect 41 21 53 67)(font "Arial" )(vertical))
		(line (pt 48 0)(pt 48 16))
	)
	(port
		(pt 32 0)
		(input)
		(text "ACSignal" (rect 0 0 44 12)(font "Arial" ))
		(text "ACSignal" (rect 25 21 37 65)(font "Arial" )(vertical))
		(line (pt 32 0)(pt 32 16))
	)
	(port
		(pt 144 192)
		(output)
		(text "out[7..0]" (rect 0 0 41 12)(font "Arial" ))
		(text "out[7..0]" (rect 137 137 149 178)(font "Arial" )(vertical))
		(line (pt 144 192)(pt 144 176)(line_width 3))
	)
	(drawing
		(rectangle (rect 16 16 160 176))
	)
	(rotate270)
)
(symbol
	(rect 1560 504 1752 616)
	(text "DR" (rect 5 0 21 12)(font "Arial" ))
	(text "inst55" (rect 8 96 37 108)(font "Arial" ))
	(port
		(pt 0 32)
		(input)
		(text "clk" (rect 0 0 14 12)(font "Arial" ))
		(text "clk" (rect 21 27 35 39)(font "Arial" ))
		(line (pt 0 32)(pt 16 32))
	)
	(port
		(pt 0 48)
		(input)
		(text "DRin[7..0]" (rect 0 0 50 12)(font "Arial" ))
		(text "DRin[7..0]" (rect 21 43 71 55)(font "Arial" ))
		(line (pt 0 48)(pt 16 48)(line_width 3))
	)
	(port
		(pt 0 64)
		(input)
		(text "DRload" (rect 0 0 36 12)(font "Arial" ))
		(text "DRload" (rect 21 59 57 71)(font "Arial" ))
		(line (pt 0 64)(pt 16 64))
	)
	(port
		(pt 192 32)
		(output)
		(text "DRout[7..0]" (rect 0 0 57 12)(font "Arial" ))
		(text "DRout[7..0]" (rect 123 27 180 39)(font "Arial" ))
		(line (pt 192 32)(pt 176 32)(line_width 3))
	)
	(drawing
		(rectangle (rect 16 16 176 96))
	)
)
(symbol
	(rect 1824 -160 1968 16)
	(text "addressMux" (rect 0 112 12 171)(font "Arial" )(vertical))
	(text "inst8" (rect 128 145 140 168)(font "Arial" )(vertical))
	(port
		(pt 32 176)
		(input)
		(text "AR[4..0]" (rect 0 0 41 12)(font "Arial" ))
		(text "AR[4..0]" (rect 27 114 39 155)(font "Arial" )(vertical))
		(line (pt 32 176)(pt 32 160)(line_width 3))
	)
	(port
		(pt 48 176)
		(input)
		(text "SP[4..0]" (rect 0 0 40 12)(font "Arial" ))
		(text "SP[4..0]" (rect 43 115 55 155)(font "Arial" )(vertical))
		(line (pt 48 176)(pt 48 160)(line_width 3))
	)
	(port
		(pt 64 176)
		(input)
		(text "DR[7..0]" (rect 0 0 42 12)(font "Arial" ))
		(text "DR[7..0]" (rect 59 113 71 155)(font "Arial" )(vertical))
		(line (pt 64 176)(pt 64 160)(line_width 3))
	)
	(port
		(pt 80 176)
		(input)
		(text "ARSignal" (rect 0 0 44 12)(font "Arial" ))
		(text "ARSignal" (rect 75 111 87 155)(font "Arial" )(vertical))
		(line (pt 80 176)(pt 80 160))
	)
	(port
		(pt 96 176)
		(input)
		(text "SPSignal" (rect 0 0 43 12)(font "Arial" ))
		(text "SPSignal" (rect 91 112 103 155)(font "Arial" )(vertical))
		(line (pt 96 176)(pt 96 160))
	)
	(port
		(pt 112 176)
		(input)
		(text "DRSignal" (rect 0 0 46 12)(font "Arial" ))
		(text "DRSignal" (rect 107 109 119 155)(font "Arial" )(vertical))
		(line (pt 112 176)(pt 112 160))
	)
	(port
		(pt 32 0)
		(output)
		(text "out[4..0]" (rect 0 0 41 12)(font "Arial" ))
		(text "out[4..0]" (rect 27 14 39 55)(font "Arial" )(vertical))
		(line (pt 32 0)(pt 32 16)(line_width 3))
	)
	(drawing
		(rectangle (rect 16 16 128 160))
	)
	(rotate90)
)
(symbol
	(rect 1568 904 1784 1048)
	(text "AC" (rect 5 0 20 12)(font "Arial" ))
	(text "inst14" (rect 8 128 37 140)(font "Arial" ))
	(port
		(pt 0 32)
		(input)
		(text "clk" (rect 0 0 14 12)(font "Arial" ))
		(text "clk" (rect 21 27 35 39)(font "Arial" ))
		(line (pt 0 32)(pt 16 32))
	)
	(port
		(pt 0 48)
		(input)
		(text "ACin[7..0]" (rect 0 0 49 12)(font "Arial" ))
		(text "ACin[7..0]" (rect 21 43 70 55)(font "Arial" ))
		(line (pt 0 48)(pt 16 48)(line_width 3))
	)
	(port
		(pt 0 64)
		(input)
		(text "ACload" (rect 0 0 35 12)(font "Arial" ))
		(text "ACload" (rect 21 59 56 71)(font "Arial" ))
		(line (pt 0 64)(pt 16 64))
	)
	(port
		(pt 0 80)
		(input)
		(text "ACMemIn[7..0]" (rect 0 0 74 12)(font "Arial" ))
		(text "ACMemIn[7..0]" (rect 21 75 95 87)(font "Arial" ))
		(line (pt 0 80)(pt 16 80)(line_width 3))
	)
	(port
		(pt 0 96)
		(input)
		(text "ACMemLoad" (rect 0 0 62 12)(font "Arial" ))
		(text "ACMemLoad" (rect 21 91 83 103)(font "Arial" ))
		(line (pt 0 96)(pt 16 96))
	)
	(port
		(pt 216 32)
		(output)
		(text "ACout[7..0]" (rect 0 0 56 12)(font "Arial" ))
		(text "ACout[7..0]" (rect 148 27 204 39)(font "Arial" ))
		(line (pt 216 32)(pt 200 32)(line_width 3))
	)
	(drawing
		(rectangle (rect 16 16 200 128))
	)
)
(symbol
	(rect 440 480 624 832)
	(text "controlUnit" (rect 5 0 65 14)(font "Arial" (font_size 8)))
	(text "inst15" (rect 8 336 37 348)(font "Arial" ))
	(port
		(pt 0 32)
		(input)
		(text "ir[2..0]" (rect 0 0 35 14)(font "Arial" (font_size 8)))
		(text "ir[2..0]" (rect 21 27 56 41)(font "Arial" (font_size 8)))
		(line (pt 0 32)(pt 16 32)(line_width 3))
	)
	(port
		(pt 0 48)
		(input)
		(text "clk" (rect 0 0 15 14)(font "Arial" (font_size 8)))
		(text "clk" (rect 21 43 36 57)(font "Arial" (font_size 8)))
		(line (pt 0 48)(pt 16 48))
	)
	(port
		(pt 184 32)
		(output)
		(text "ARLoad" (rect 0 0 46 14)(font "Arial" (font_size 8)))
		(text "ARLoad" (rect 117 27 163 41)(font "Arial" (font_size 8)))
		(line (pt 184 32)(pt 168 32))
	)
	(port
		(pt 184 48)
		(output)
		(text "PCinc" (rect 0 0 31 14)(font "Arial" (font_size 8)))
		(text "PCinc" (rect 132 43 163 57)(font "Arial" (font_size 8)))
		(line (pt 184 48)(pt 168 48))
	)
	(port
		(pt 184 64)
		(output)
		(text "DRload" (rect 0 0 40 14)(font "Arial" (font_size 8)))
		(text "DRload" (rect 123 59 163 73)(font "Arial" (font_size 8)))
		(line (pt 184 64)(pt 168 64))
	)
	(port
		(pt 184 80)
		(output)
		(text "IRload" (rect 0 0 34 14)(font "Arial" (font_size 8)))
		(text "IRload" (rect 129 75 163 89)(font "Arial" (font_size 8)))
		(line (pt 184 80)(pt 168 80))
	)
	(port
		(pt 184 96)
		(output)
		(text "SPdec" (rect 0 0 36 14)(font "Arial" (font_size 8)))
		(text "SPdec" (rect 127 91 163 105)(font "Arial" (font_size 8)))
		(line (pt 184 96)(pt 168 96))
	)
	(port
		(pt 184 112)
		(output)
		(text "SPinc" (rect 0 0 31 14)(font "Arial" (font_size 8)))
		(text "SPinc" (rect 132 107 163 121)(font "Arial" (font_size 8)))
		(line (pt 184 112)(pt 168 112))
	)
	(port
		(pt 184 128)
		(output)
		(text "ADD" (rect 0 0 25 14)(font "Arial" (font_size 8)))
		(text "ADD" (rect 138 123 163 137)(font "Arial" (font_size 8)))
		(line (pt 184 128)(pt 168 128))
	)
	(port
		(pt 184 144)
		(output)
		(text "SUBT" (rect 0 0 31 14)(font "Arial" (font_size 8)))
		(text "SUBT" (rect 132 139 163 153)(font "Arial" (font_size 8)))
		(line (pt 184 144)(pt 168 144))
	)
	(port
		(pt 184 160)
		(output)
		(text "PCLoad" (rect 0 0 43 14)(font "Arial" (font_size 8)))
		(text "PCLoad" (rect 120 155 163 169)(font "Arial" (font_size 8)))
		(line (pt 184 160)(pt 168 160))
	)
	(port
		(pt 184 176)
		(output)
		(text "memoryDataBus" (rect 0 0 93 14)(font "Arial" (font_size 8)))
		(text "memoryDataBus" (rect 70 171 163 185)(font "Arial" (font_size 8)))
		(line (pt 184 176)(pt 168 176))
	)
	(port
		(pt 184 192)
		(output)
		(text "PCDataBus" (rect 0 0 63 14)(font "Arial" (font_size 8)))
		(text "PCDataBus" (rect 100 187 163 201)(font "Arial" (font_size 8)))
		(line (pt 184 192)(pt 168 192))
	)
	(port
		(pt 184 208)
		(output)
		(text "DRDataBus" (rect 0 0 64 14)(font "Arial" (font_size 8)))
		(text "DRDataBus" (rect 99 203 163 217)(font "Arial" (font_size 8)))
		(line (pt 184 208)(pt 168 208))
	)
	(port
		(pt 184 224)
		(output)
		(text "ACDataBus" (rect 0 0 66 14)(font "Arial" (font_size 8)))
		(text "ACDataBus" (rect 97 219 163 233)(font "Arial" (font_size 8)))
		(line (pt 184 224)(pt 168 224))
	)
	(port
		(pt 184 240)
		(output)
		(text "write" (rect 0 0 29 14)(font "Arial" (font_size 8)))
		(text "write" (rect 134 235 163 249)(font "Arial" (font_size 8)))
		(line (pt 184 240)(pt 168 240))
	)
	(port
		(pt 184 256)
		(output)
		(text "ARmemoryAddr" (rect 0 0 90 14)(font "Arial" (font_size 8)))
		(text "ARmemoryAddr" (rect 73 251 163 265)(font "Arial" (font_size 8)))
		(line (pt 184 256)(pt 168 256))
	)
	(port
		(pt 184 272)
		(output)
		(text "SPmemoryAdd" (rect 0 0 83 14)(font "Arial" (font_size 8)))
		(text "SPmemoryAdd" (rect 80 267 163 281)(font "Arial" (font_size 8)))
		(line (pt 184 272)(pt 168 272))
	)
	(port
		(pt 184 288)
		(output)
		(text "DRmemoryAdd" (rect 0 0 84 14)(font "Arial" (font_size 8)))
		(text "DRmemoryAdd" (rect 79 283 163 297)(font "Arial" (font_size 8)))
		(line (pt 184 288)(pt 168 288))
	)
	(port
		(pt 184 304)
		(output)
		(text "ACMemLoad" (rect 0 0 71 14)(font "Arial" (font_size 8)))
		(text "ACMemLoad" (rect 92 299 163 313)(font "Arial" (font_size 8)))
		(line (pt 184 304)(pt 168 304))
	)
	(drawing
		(rectangle (rect 16 16 168 336))
	)
)
(symbol
	(rect 328 176 408 312)
	(text "clkDiv" (rect 68 5 80 36)(font "Arial" )(vertical))
	(text "inst" (rect 4 8 16 25)(font "Arial" )(vertical))
	(port
		(pt 48 0)
		(input)
		(text "clk" (rect 0 0 14 12)(font "Arial" ))
		(text "clk" (rect 41 21 53 35)(font "Arial" )(vertical))
		(line (pt 48 0)(pt 48 16))
	)
	(port
		(pt 48 136)
		(output)
		(text "clkOut" (rect 0 0 31 12)(font "Arial" ))
		(text "clkOut" (rect 41 89 53 120)(font "Arial" )(vertical))
		(line (pt 48 136)(pt 48 120))
	)
	(drawing
		(rectangle (rect 16 16 64 120))
	)
	(rotate270)
)
(symbol
	(rect 1224 856 1424 1000)
	(text "ALU" (rect 5 0 26 12)(font "Arial" ))
	(text "inst20" (rect 8 128 37 140)(font "Arial" ))
	(port
		(pt 0 32)
		(input)
		(text "clk" (rect 0 0 14 12)(font "Arial" ))
		(text "clk" (rect 21 27 35 39)(font "Arial" ))
		(line (pt 0 32)(pt 16 32))
	)
	(port
		(pt 0 48)
		(input)
		(text "ALUin[7..0]" (rect 0 0 55 12)(font "Arial" ))
		(text "ALUin[7..0]" (rect 21 43 76 55)(font "Arial" ))
		(line (pt 0 48)(pt 16 48)(line_width 3))
	)
	(port
		(pt 0 64)
		(input)
		(text "AC[7..0]" (rect 0 0 41 12)(font "Arial" ))
		(text "AC[7..0]" (rect 21 59 62 71)(font "Arial" ))
		(line (pt 0 64)(pt 16 64)(line_width 3))
	)
	(port
		(pt 0 80)
		(input)
		(text "ADD" (rect 0 0 23 12)(font "Arial" ))
		(text "ADD" (rect 21 75 44 87)(font "Arial" ))
		(line (pt 0 80)(pt 16 80))
	)
	(port
		(pt 0 96)
		(input)
		(text "SUB" (rect 0 0 22 12)(font "Arial" ))
		(text "SUB" (rect 21 91 43 103)(font "Arial" ))
		(line (pt 0 96)(pt 16 96))
	)
	(port
		(pt 200 32)
		(output)
		(text "ALUout[7..0]" (rect 0 0 62 12)(font "Arial" ))
		(text "ALUout[7..0]" (rect 127 27 189 39)(font "Arial" ))
		(line (pt 200 32)(pt 184 32)(line_width 3))
	)
	(drawing
		(rectangle (rect 16 16 184 128))
	)
)
(connector
	(pt 1520 872)
	(pt 1128 872)
)
(connector
	(pt 1560 104)
	(pt 1536 104)
	(bus)
)
(connector
	(pt 1208 864)
	(pt 1536 864)
	(bus)
)
(connector
	(pt 1264 0)
	(pt 1264 -256)
)
(connector
	(pt 1536 -272)
	(pt 1536 104)
	(bus)
)
(connector
	(pt 1536 -272)
	(pt 1968 -272)
	(bus)
)
(connector
	(pt 1264 -256)
	(pt 1968 -256)
)
(connector
	(pt 1784 184)
	(pt 1784 112)
)
(connector
	(pt 1640 -48)
	(pt 1616 -48)
	(bus)
)
(connector
	(pt 1616 48)
	(pt 1616 -48)
	(bus)
)
(connector
	(pt 1616 48)
	(pt 1856 48)
	(bus)
)
(connector
	(pt 1720 416)
	(pt 1712 416)
	(bus)
)
(connector
	(pt 1712 416)
	(pt 1712 456)
	(bus)
)
(connector
	(pt 1712 456)
	(pt 1792 456)
	(bus)
)
(connector
	(pt 1760 1104)
	(pt 1784 1104)
	(bus)
)
(connector
	(pt 1328 576)
	(pt 1304 576)
)
(connector
	(pt 1304 560)
	(pt 1112 560)
)
(connector
	(pt 1336 368)
	(pt 1312 368)
)
(connector
	(pt 1312 800)
	(pt 1304 800)
)
(connector
	(pt 1304 760)
	(pt 928 760)
)
(connector
	(pt 1256 816)
	(pt 1224 816)
)
(connector
	(pt 1224 776)
	(pt 912 776)
)
(connector
	(pt 960 936)
	(pt 952 936)
)
(connector
	(pt 952 936)
	(pt 952 960)
)
(connector
	(pt 952 960)
	(pt 896 960)
)
(connector
	(pt 952 1000)
	(pt 936 1000)
)
(connector
	(pt 1264 408)
	(pt 1224 408)
)
(connector
	(pt 1464 976)
	(pt 1456 976)
)
(connector
	(pt 1464 960)
	(pt 1432 960)
)
(connector
	(pt 1432 960)
	(pt 1432 1032)
)
(connector
	(pt 1912 264)
	(pt 1920 264)
	(bus)
)
(connector
	(pt 1296 160)
	(pt 1312 160)
)
(connector
	(pt 1296 120)
	(pt 1296 160)
)
(connector
	(pt 1024 -16)
	(pt 1040 -16)
)
(connector
	(pt 1024 0)
	(pt 1024 -16)
)
(connector
	(pt 2304 1208)
	(pt 2304 1216)
	(bus)
)
(connector
	(pt 2312 1208)
	(pt 2304 1208)
	(bus)
)
(connector
	(pt 1128 536)
	(pt 1560 536)
)
(connector
	(pt 1536 552)
	(pt 1560 552)
	(bus)
)
(connector
	(pt 1304 568)
	(pt 1560 568)
)
(connector
	(pt 1304 560)
	(pt 1304 568)
)
(connector
	(pt 1304 568)
	(pt 1304 576)
)
(connector
	(pt 1760 1128)
	(pt 1744 1128)
	(bus)
)
(connector
	(pt 1536 1144)
	(pt 1560 1144)
	(bus)
)
(connector
	(pt 1336 1160)
	(pt 1560 1160)
)
(connector
	(pt 1536 1144)
	(pt 1536 1216)
	(bus)
)
(connector
	(pt 1336 1184)
	(pt 1352 1184)
)
(connector
	(pt 1008 328)
	(pt 1312 328)
)
(connector
	(pt 688 344)
	(pt 1224 344)
)
(connector
	(pt 1912 288)
	(pt 1752 288)
	(bus)
)
(connector
	(pt 1128 88)
	(pt 1128 288)
)
(connector
	(pt 1128 288)
	(pt 1128 536)
)
(connector
	(pt 1912 264)
	(pt 1912 288)
	(bus)
)
(connector
	(pt 1912 288)
	(pt 1912 296)
	(bus)
)
(connector
	(pt 1536 104)
	(pt 1536 304)
	(bus)
)
(connector
	(pt 1536 304)
	(pt 1536 552)
	(bus)
)
(connector
	(pt 1312 320)
	(pt 1312 328)
)
(connector
	(pt 1312 328)
	(pt 1312 368)
)
(connector
	(pt 1224 336)
	(pt 1224 344)
)
(connector
	(pt 1224 344)
	(pt 1224 408)
)
(connector
	(pt 1128 288)
	(pt 1568 288)
)
(connector
	(pt 1536 304)
	(pt 1568 304)
	(bus)
)
(connector
	(pt 1312 320)
	(pt 1568 320)
)
(connector
	(pt 1224 336)
	(pt 1568 336)
)
(connector
	(pt 2184 776)
	(pt 2184 832)
)
(connector
	(pt 2216 696)
	(pt 2216 832)
)
(connector
	(pt 2280 -272)
	(pt 2280 832)
	(bus)
)
(connector
	(pt 2248 736)
	(pt 2248 832)
	(bus)
)
(connector
	(pt 2232 296)
	(pt 2232 832)
	(bus)
)
(connector
	(pt 1912 296)
	(pt 2232 296)
	(bus)
)
(connector
	(pt 2176 776)
	(pt 2184 776)
)
(connector
	(pt 2184 776)
	(pt 2344 776)
)
(connector
	(pt 2208 696)
	(pt 2216 696)
)
(connector
	(pt 2216 696)
	(pt 2344 696)
)
(connector
	(pt 2184 -272)
	(pt 2280 -272)
	(bus)
)
(connector
	(pt 2280 -272)
	(pt 2304 -272)
	(bus)
)
(connector
	(pt 1752 88)
	(pt 1856 88)
	(bus)
)
(connector
	(pt 1784 184)
	(pt 776 184)
)
(connector
	(pt 1920 200)
	(pt 792 200)
)
(connector
	(pt 1920 160)
	(pt 2024 160)
)
(connector
	(pt 1936 208)
	(pt 2016 208)
)
(connector
	(pt 2264 832)
	(pt 2264 536)
	(bus)
)
(connector
	(pt 1792 456)
	(pt 1792 536)
	(bus)
)
(connector
	(pt 1752 536)
	(pt 1792 536)
	(bus)
)
(connector
	(pt 1456 976)
	(pt 1456 1048)
)
(connector
	(pt 752 0)
	(pt 1024 0)
)
(connector
	(pt 1024 0)
	(pt 1264 0)
)
(connector
	(pt 2168 824)
	(pt 2344 824)
)
(connector
	(pt 672 120)
	(pt 1296 120)
)
(connector
	(pt 1296 120)
	(pt 1560 120)
)
(connector
	(pt 2200 832)
	(pt 2200 752)
)
(connector
	(pt 2208 744)
	(pt 2208 752)
)
(connector
	(pt 2344 744)
	(pt 2208 744)
)
(connector
	(pt 2192 752)
	(pt 2200 752)
)
(connector
	(pt 2200 752)
	(pt 2208 752)
)
(connector
	(pt 1936 216)
	(pt 808 216)
)
(connector
	(pt 1128 728)
	(pt 1560 728)
)
(connector
	(pt 1536 744)
	(pt 1560 744)
	(bus)
)
(connector
	(pt 1872 728)
	(pt 1744 728)
	(bus)
)
(connector
	(pt 1304 776)
	(pt 1560 776)
)
(connector
	(pt 1224 792)
	(pt 1560 792)
)
(connector
	(pt 1128 536)
	(pt 1128 728)
)
(connector
	(pt 1128 728)
	(pt 1128 872)
)
(connector
	(pt 1536 552)
	(pt 1536 744)
	(bus)
)
(connector
	(pt 1536 744)
	(pt 1536 864)
	(bus)
)
(connector
	(pt 1304 760)
	(pt 1304 776)
)
(connector
	(pt 1304 776)
	(pt 1304 800)
)
(connector
	(pt 1224 776)
	(pt 1224 792)
)
(connector
	(pt 1224 792)
	(pt 1224 816)
)
(connector
	(pt 1800 848)
	(pt 1184 848)
	(bus)
)
(connector
	(pt 1800 736)
	(pt 2248 736)
	(bus)
)
(connector
	(pt 1800 736)
	(pt 1800 848)
	(bus)
)
(connector
	(pt 416 1088)
	(pt 1760 1088)
	(bus)
)
(connector
	(pt 1760 1088)
	(pt 1760 1104)
	(bus)
)
(connector
	(pt 1760 1104)
	(pt 1760 1128)
	(bus)
)
(connector
	(pt 1336 1144)
	(pt 864 1144)
)
(connector
	(pt 1336 1144)
	(pt 1336 1160)
)
(connector
	(pt 1336 1160)
	(pt 1336 1184)
)
(connector
	(pt 376 1128)
	(pt 1128 1128)
)
(connector
	(pt 1128 1128)
	(pt 1560 1128)
)
(connector
	(pt 1480 1064)
	(pt 784 1064)
)
(connector
	(pt 1968 -240)
	(pt 1856 -240)
	(bus)
)
(connector
	(pt 1888 536)
	(pt 1888 16)
	(bus)
)
(connector
	(pt 1904 112)
	(pt 1904 16)
)
(connector
	(pt 1856 16)
	(pt 1856 48)
	(bus)
)
(connector
	(pt 1856 48)
	(pt 1856 88)
	(bus)
)
(connector
	(pt 1792 536)
	(pt 1888 536)
	(bus)
)
(connector
	(pt 1888 536)
	(pt 2264 536)
	(bus)
)
(connector
	(pt 1784 112)
	(pt 1904 112)
)
(connector
	(pt 1904 112)
	(pt 2024 112)
)
(connector
	(pt 1920 16)
	(pt 1920 160)
)
(connector
	(pt 1920 160)
	(pt 1920 200)
)
(connector
	(pt 1936 16)
	(pt 1936 208)
)
(connector
	(pt 1936 208)
	(pt 1936 216)
)
(connector
	(pt 1856 -240)
	(pt 1856 -160)
	(bus)
)
(connector
	(pt 1128 88)
	(pt 1560 88)
)
(connector
	(pt 376 -192)
	(pt 376 176)
)
(connector
	(pt 360 -192)
	(pt 376 -192)
)
(connector
	(pt 376 -192)
	(pt 1968 -192)
)
(connector
	(pt 376 368)
	(pt 440 368)
)
(connector
	(pt 376 312)
	(pt 376 368)
)
(connector
	(pt 1504 880)
	(pt 1544 880)
	(bus)
)
(connector
	(pt 1800 928)
	(pt 1824 928)
	(bus)
)
(connector
	(pt 1520 872)
	(pt 1520 936)
)
(connector
	(pt 1480 1064)
	(pt 1480 1000)
)
(connector
	(pt 1800 936)
	(pt 1784 936)
	(bus)
)
(connector
	(pt 1536 864)
	(pt 1536 984)
	(bus)
)
(connector
	(pt 1536 984)
	(pt 1536 1144)
	(bus)
)
(connector
	(pt 1800 848)
	(pt 1800 928)
	(bus)
)
(connector
	(pt 1800 928)
	(pt 1800 936)
	(bus)
)
(connector
	(pt 1520 936)
	(pt 1568 936)
)
(connector
	(pt 1504 952)
	(pt 1568 952)
	(bus)
)
(connector
	(pt 1528 968)
	(pt 1568 968)
)
(connector
	(pt 1536 984)
	(pt 1568 984)
	(bus)
)
(connector
	(pt 1480 1000)
	(pt 1568 1000)
)
(connector
	(pt 1208 864)
	(pt 1208 904)
	(bus)
)
(connector
	(pt 1184 848)
	(pt 1184 920)
	(bus)
)
(connector
	(pt 1128 888)
	(pt 1224 888)
)
(connector
	(pt 1208 904)
	(pt 1224 904)
	(bus)
)
(connector
	(pt 1184 920)
	(pt 1224 920)
	(bus)
)
(connector
	(pt 1176 936)
	(pt 1224 936)
)
(connector
	(pt 1504 880)
	(pt 1504 888)
	(bus)
)
(connector
	(pt 1504 888)
	(pt 1504 952)
	(bus)
)
(connector
	(pt 1128 872)
	(pt 1128 888)
)
(connector
	(pt 1128 888)
	(pt 1128 1128)
)
(connector
	(pt 1424 888)
	(pt 1504 888)
	(bus)
)
(connector
	(pt 1432 1032)
	(pt 1192 1032)
)
(connector
	(pt 1192 952)
	(pt 1224 952)
)
(connector
	(pt 952 960)
	(pt 1176 960)
)
(connector
	(pt 1176 1048)
	(pt 1456 1048)
)
(connector
	(pt 1176 936)
	(pt 1176 960)
)
(connector
	(pt 1176 960)
	(pt 1176 1048)
)
(connector
	(pt 936 984)
	(pt 936 1000)
)
(connector
	(pt 1192 952)
	(pt 1192 984)
)
(connector
	(pt 1192 984)
	(pt 1192 1032)
)
(connector
	(pt 880 984)
	(pt 936 984)
)
(connector
	(pt 936 984)
	(pt 1192 984)
)
(connector
	(pt 2280 1024)
	(pt 2280 1216)
	(bus)
)
(connector
	(pt 1536 1216)
	(pt 2280 1216)
	(bus)
)
(connector
	(pt 2280 1216)
	(pt 2304 1216)
	(bus)
)
(connector
	(pt 416 512)
	(pt 440 512)
	(bus)
)
(connector
	(pt 376 528)
	(pt 440 528)
)
(connector
	(pt 688 344)
	(pt 688 528)
)
(connector
	(pt 912 776)
	(pt 912 576)
)
(connector
	(pt 928 760)
	(pt 928 592)
)
(connector
	(pt 688 528)
	(pt 624 528)
)
(connector
	(pt 912 576)
	(pt 624 576)
)
(connector
	(pt 928 592)
	(pt 624 592)
)
(connector
	(pt 880 624)
	(pt 624 624)
)
(connector
	(pt 672 120)
	(pt 672 512)
)
(connector
	(pt 672 512)
	(pt 624 512)
)
(connector
	(pt 1112 560)
	(pt 1112 544)
)
(connector
	(pt 1112 544)
	(pt 624 544)
)
(connector
	(pt 864 560)
	(pt 624 560)
)
(connector
	(pt 896 960)
	(pt 896 608)
)
(connector
	(pt 896 608)
	(pt 624 608)
)
(connector
	(pt 1008 328)
	(pt 1008 640)
)
(connector
	(pt 1008 640)
	(pt 624 640)
)
(connector
	(pt 2208 696)
	(pt 2208 656)
)
(connector
	(pt 2208 656)
	(pt 624 656)
)
(connector
	(pt 2192 752)
	(pt 2192 672)
)
(connector
	(pt 2192 672)
	(pt 624 672)
)
(connector
	(pt 2176 776)
	(pt 2176 688)
)
(connector
	(pt 2176 688)
	(pt 624 688)
)
(connector
	(pt 808 216)
	(pt 808 768)
)
(connector
	(pt 808 768)
	(pt 624 768)
)
(connector
	(pt 792 200)
	(pt 792 752)
)
(connector
	(pt 792 752)
	(pt 624 752)
)
(connector
	(pt 776 184)
	(pt 776 736)
)
(connector
	(pt 776 736)
	(pt 624 736)
)
(connector
	(pt 752 0)
	(pt 752 720)
)
(connector
	(pt 752 720)
	(pt 624 720)
)
(connector
	(pt 416 1088)
	(pt 416 512)
	(bus)
)
(connector
	(pt 864 1144)
	(pt 864 560)
)
(connector
	(pt 784 784)
	(pt 624 784)
)
(connector
	(pt 784 1064)
	(pt 784 784)
)
(connector
	(pt 880 984)
	(pt 880 624)
)
(connector
	(pt 376 368)
	(pt 376 528)
)
(connector
	(pt 376 528)
	(pt 376 1128)
)
(connector
	(pt 2168 704)
	(pt 2168 824)
)
(connector
	(pt 2168 824)
	(pt 2168 832)
)
(connector
	(pt 624 704)
	(pt 2168 704)
)
(connector
	(pt 1896 720)
	(pt 1872 720)
	(bus)
)
(connector
	(pt 1872 16)
	(pt 1872 720)
	(bus)
)
(connector
	(pt 1872 720)
	(pt 1872 728)
	(bus)
)
(junction (pt 1128 872))
(junction (pt 1536 864))
(junction (pt 1536 104))
(junction (pt 1296 120))
(junction (pt 1856 48))
(junction (pt 1760 1104))
(junction (pt 1312 328))
(junction (pt 952 960))
(junction (pt 1224 344))
(junction (pt 1024 0))
(junction (pt 1128 536))
(junction (pt 1536 552))
(junction (pt 1304 568))
(junction (pt 1536 1144))
(junction (pt 1336 1160))
(junction (pt 1128 288))
(junction (pt 1912 288))
(junction (pt 1536 304))
(junction (pt 2184 776))
(junction (pt 2216 696))
(junction (pt 2280 -272))
(junction (pt 1904 112))
(junction (pt 1920 160))
(junction (pt 1936 208))
(junction (pt 1792 536))
(junction (pt 1888 536))
(junction (pt 2200 752))
(junction (pt 2168 824))
(junction (pt 1128 728))
(junction (pt 1536 744))
(junction (pt 1304 776))
(junction (pt 1224 792))
(junction (pt 1800 848))
(junction (pt 1128 1128))
(junction (pt 376 -192))
(junction (pt 376 368))
(junction (pt 784 1064))
(junction (pt 1800 928))
(junction (pt 1536 984))
(junction (pt 1128 888))
(junction (pt 1504 888))
(junction (pt 1176 960))
(junction (pt 936 984))
(junction (pt 1192 984))
(junction (pt 2280 1216))
(junction (pt 376 528))
(junction (pt 1872 720))
